Data Manipulation with dplyr
…
---

## The group_by function
With `group_by`, you can specify sub-groups in your data by saying which variables in your data frame define groups of observations. For example, we can group the `cropYield` data frame into 9 smaller groups, one for each of the tilling and fertilizer combinations.

```r
cropsGrouped <- group_by(cropYield, Till, Fert) # store the grouped dataset
cropsGrouped
```

```
## # A tibble: 99 x 4
## # Groups:   Till, Fert [9]
##    Field Till   Fert    Yield
##    <int> <chr>  <chr>   <int>
##  1     1 Chisel Broad     119
##  2     1 Chisel Deep      130
##  3     1 Chisel Surface   123
##  4     2 Chisel Broad     135
##  5     2 Chisel Deep      148
##  6     2 Chisel Surface   134
##  7     3 Chisel Broad     140
##  8     3 Chisel Deep      146
##  9     3 Chisel Surface   142
## 10     4 Chisel Broad     126
## # … with 89 more rows
```

---

## The group_by function
The `group_by` function doesn't change the external appearance of the data frame; the only noticeable change is the addition of the line `Groups: Till, Fert [9]` when the data frame is printed.

```r
cropsGrouped # Inspect the grouped dataset
```

```
## # A tibble: 99 x 4
## # Groups:   Till, Fert [9]
##    Field Till   Fert    Yield
##    <int> <chr>  <chr>   <int>
##  1     1 Chisel Broad     119
##  2     1 Chisel Deep      130
##  3     1 Chisel Surface   123
##  4     2 Chisel Broad     135
##  5     2 Chisel Deep      148
##  6     2 Chisel Surface   134
##  7     3 Chisel Broad     140
##  8     3 Chisel Deep      146
##  9     3 Chisel Surface   142
## 10     4 Chisel Broad     126
## # … with 89 more rows
```
…
--

**Important**: when you do use `summarize` on a grouped data frame, your output will only have your grouping variables, and your new summary variables.

---

## Group-wise operations
Lets take a closer look at meta-data about our summary data frame.

```
## # A tibble: 9 x 3
## # Groups:   Till [3]
##   Till    Fert    total_yield
##   <chr>   <chr>         <int>
## 1 Chisel  Broad          1491
## 2 Chisel  Deep           1605
## 3 Chisel  Surface        1577
## 4 Moldbrd Broad          1408
## # … with 5 more rows
```
The `Groups` line at the top has changed: now our data frame is only grouped by `Till`, and the group size is now `[?]`.

This is because `summarize` always "peels off" the final grouping variable, because it doesn't make sense to continue grouping by the same columns. If you did, each group size would be one, because you just summarized each group down to one value.

---

## Group-wise operations
You can use the `n` function, with no arguments, inside calls to `summarize` and `mutate` to count the number of observations in a group.

```r
summarize(cropsGrouped, grpSize = n())
```

```
## # A tibble: 9 x 3
## # Groups:   Till [3]
##   Till    Fert    grpSize
##   <chr>   <chr>     <int>
## 1 Chisel  Broad        12
## 2 Chisel  Deep         12
## 3 Chisel  Surface      12
## 4 Moldbrd Broad        10
## # … with 5 more rows
```

---

## Ungrouping
If you want to remove the grouping you've applied to a data frame, just use the `ungroup` function to reset it back to a "normal" data frame.

```r
ungroup(cropsGrouped) # no more "Groups" line
```

```
## # A tibble: 99 x 4
##   Field Till   Fert    Yield
##   <int> <chr>  <chr>   <int>
## 1     1 Chisel Broad     119
## 2     1 Chisel Deep      130
## 3     1 Chisel Surface   123
## 4     2 Chisel Broad     135
## # … with 95 more rows
```
…
